[gd_scene format=3 uid="uid://ddy6c62778ijh"]

[node name="Menu" type="VBoxContainer"]
anchors_preset = 15
anchor_right = 1.0
anchor_bottom = 1.0
offset_top = 638.0
offset_right = -1605.0
grow_horizontal = 2
grow_vertical = 2
alignment = 2

[node name="Button" type="Button" parent="."]
layout_mode = 2
text = "Save Story"

[node name="Button2" type="Button" parent="."]
layout_mode = 2
text = "Load Story"

[node name="Button3" type="Button" parent="."]
layout_mode = 2
text = "Return to Main Menu"

[node name="Exit" type="Button" parent="."]
layout_mode = 2
text = "Exit App"
